a3_task3_caitie_reza
…
2b. Purple Urchin Summary Table

Here, I will make a summary table with urchin counts for each site taken each year.

purple_summary <- purple_urchins %>% 
  group_by(Year, site_full) %>% 
  count(site_full) %>% 
  rename("Urchins" = "n")

purple_summary

## # A tibble: 61 x 3
## # Groups:   Year, site_full [61]
##     Year site_full           Urchins
##    <dbl> <chr>                 <int>
##  1  2008 Arroyo Quemado Reef      67
##  2  2008 Carpinteria Reef        265
##  3  2008 Mohawk Reef             294
##  4  2008 Naples Reef             246
##  5  2009 Arroyo Quemado Reef     926
##  6  2009 Carpinteria Reef       1315
##  7  2009 Mohawk Reef            1344
##  8  2009 Naples Reef            1064
##  9  2010 Arroyo Quemado Reef     921
## 10  2010 Carpinteria Reef        930
## #  with 51 more rows
…
